<?xml version="1.0" encoding="UTF-8" standalone="no"?>
<!-- Created with Inkscape (http://www.inkscape.org/) -->

<svg
   xmlns:dc="http://purl.org/dc/elements/1.1/"
   xmlns:cc="http://creativecommons.org/ns#"
   xmlns:rdf="http://www.w3.org/1999/02/22-rdf-syntax-ns#"
   xmlns:svg="http://www.w3.org/2000/svg"
   xmlns="http://www.w3.org/2000/svg"
   xmlns:xlink="http://www.w3.org/1999/xlink"
   xmlns:sodipodi="http://sodipodi.sourceforge.net/DTD/sodipodi-0.dtd"
   xmlns:inkscape="http://www.inkscape.org/namespaces/inkscape"
   id="svg3055"
   version="1.1"
   inkscape:version="0.48.4 r9939"
   width="270.34174"
   height="342.43286"
   sodipodi:docname="logo_kunlabora2.svg">
  <metadata
     id="metadata3061">
    <rdf:RDF>
      <cc:Work
         rdf:about="">
        <dc:format>image/svg+xml</dc:format>
        <dc:type
           rdf:resource="http://purl.org/dc/dcmitype/StillImage" />
        <dc:title />
      </cc:Work>
    </rdf:RDF>
  </metadata>
  <defs
     id="defs3059">
    <clipPath
       clipPathUnits="userSpaceOnUse"
       id="clipPath4654">
      <path
         sodipodi:type="arc"
         style="opacity:0.69847328;fill:#ffffff;fill-opacity:1;stroke:none"
         id="path4656"
         sodipodi:cx="381.03098"
         sodipodi:cy="479.45895"
         sodipodi:rx="89.974037"
         sodipodi:ry="86.954773"
         d="m 471.00501,479.45895 a 89.974037,86.954773 0 1 1 -179.94807,0 89.974037,86.954773 0 1 1 179.94807,0 z"
         transform="matrix(0.92020747,0,0,0.94928263,116.88581,26.030142)" />
    </clipPath>
    <clipPath
       clipPathUnits="userSpaceOnUse"
       id="clipPath4660">
      <rect
         style="opacity:0.69847328;fill:#d45500;fill-opacity:1;stroke:none"
         id="rect4662"
         width="178.74037"
         height="117.75126"
         x="274.75293"
         y="111.10888" />
    </clipPath>
  </defs>
  <sodipodi:namedview
     pagecolor="#ffffff"
     bordercolor="#666666"
     borderopacity="1"
     objecttolerance="10"
     gridtolerance="10"
     guidetolerance="10"
     inkscape:pageopacity="0"
     inkscape:pageshadow="2"
     inkscape:window-width="1301"
     inkscape:window-height="744"
     id="namedview3057"
     showgrid="false"
     inkscape:zoom="0.58549619"
     inkscape:cx="-195.65565"
     inkscape:cy="235.06895"
     inkscape:window-x="65"
     inkscape:window-y="24"
     inkscape:window-maximized="1"
     inkscape:current-layer="svg3055"
     units="cm"
     fit-margin-top="0"
     fit-margin-left="0"
     fit-margin-right="0"
     fit-margin-bottom="0" />
  <image
     y="0"
     x="0"
     id="image4751"
     xlink:href="data:image/png;base64,iVBORw0KGgoAAAANSUhEUgAAALQAAADkCAYAAAAxQw7FAAAABHNCSVQICAgIfAhkiAAAIABJREFU eJztfX9sFEea9jM/7AEzNjbY2GziYBODTEDBcTbZgyOLvUhZZ5UIskI5/kmYSJs/IkWy0e5JkT5L hJO/E6dPt2AJKSftShngnzsUXYwS7XlX4mx0LGjJt84Qmaw/8MaT9bLBYMDBxnhsj+f7o6vGPdVV 3dU93T090I9k2a7urq7ufvqt533rrWrAhw8fPnz48OHDhw8fPnz48OHDhw8fPnz4cA6BQjegGJGe GK4E0AKggfysJv8DQKXqbyMkAEyp/v6O/J8AkAjVbpsSHeiDD5/QBkhPDLdAIeh28rvN5SYMQiH4 FSgkT7h8/qKCT2gGhMD7AOyG++SVxSCA8wD6fILn4rEnNJEPlMD7oEiGYsIUgD4sE/yxlimPJaFV JN5LftuK2W/+jPSDGd19QquiKNvwtN2nBhRyn8VjSu7HitDpiWE1iW2xxLPf/Bl/OfkhHkiQWITQ qihWbXgaTx18106SU8t9NlS7rc+uSr2OcKEb4DRU1vgwlIiEPJYWgIXvgNQkMqnbwMJ3CHzv1dz6 H8zg/ldX8msjqYP3QmT+9hlQshqBSA0QqVZ+5FAJIAYglp4YTgLoBRB/1K32I0toQuQuAJ0wY40X vgMefovMw78pf7uI1O0JlLOFoTLyQk0ul5WsRmDl94CV64GS1TJVNwA4BuBwemK4F8DxR5XYjxyh 0xPDDVCscUz6oIffIjP3N+Dht4pVLhBStye0hcESbdnCd8gsfAfc/5OyfeV6BFYQguujEsq9OZye GI4DOBKq3ZbMs9mewiNDaNMWeeE7ZGZGC07ivLG0ADz4CzIP/rJM7miTjOWOAdj3qFnsR4LQ6Ynh DyBD5KUFYPYvCpEXZ91omrtQkztcphC77Cm+lVdALXZnemK4N1S77QPX2uoQgoVuQD5ITwy3pSeG x6A8FDmrPPWldTKLieE9LM4q1zrzZ5m9K6HIkLH0xHCbsw1zFkVJ6PTEcGV6YvgTAAMwG7nIB5xu /P5XX7p2ehfQAGAgPTH8CZFwRYeiI3R6YrgLwBh0BkQyc/ex8FW/e40qMqTHh5CZu6+3yz4AY+Re FxWKRkMTi/EJ9PIrFlNYuDaA9LdXAQAlz3S40jZPI1ymKUrfHsXCtQGE1m9FyeZ2IBzhHVkJ4Fh6 YngvgNeLxWksCgtNRvjGoEPm9PgQUr//VZbMxYjZb0Y1ZYFITX6VhrSEXro3DgBIf3tVuWfjQ3o1 tEGx1ranCDgBzxM6PTF8DIpl5mq6pXvjmL98GgvXBpBZTLnbOJuRfvDA9XNmSK82f/l0lugcVAL4 hDwLT8OzkoNIjAGIkuUXU1j8+iIW9a1LLjjdrw8FS9O3MD90BuH6VoQ37hTJkC4SBWn3qgTxpIUm OcljEJA5M30LqT+cMiSzxuJwul8fuVgcH0LqD6eQmb4l2qUFigSRnZXjKjxH6PTEcAzAFxBIjMWx S0hdPm3kpTsDnoM1ay3DzsvIzN1H6vJpLI5dEu1SCeAL8qw8BU8Rmoz4fcTduJjC/NAZLH590dU2 qREIrdKUzSalBi6KEotfX8T80BlA7Jt8RJ6ZZ+AZQqcnhj+CMuKnQWb6FlK//5We0+JDhDxHN5fu jSP1+1/pSZDD5Nl5Ap4gNLkhMe62b68qEqPIIxiWke9wOzO6acUoZBZTSF0+rRcSjXmF1AUntB6Z F68NPFYjftyJAnL5zq5g4at+LF4bEG32BKkLSmg9Mi981W8uJCeLYkow8iAWx4f0jEzBSV0wQgvJ TJw/O0b8lqb+qi30kMUrVqS/varnLBaU1AUhtBGZfefP+1i6N+5JUrtOaDJ8GtNsoGQWe9OFB8e6 p27fLEBDvAE6uqhDateHyl0lNAnEa1MSi4HMAFd/c+cBegUu+AsGpO5ye/DFNUKTHABtN1QsZC5G cHoUrl+RJ7Kk5uMjN2fBuEJoMhP7E962hWsDPplV0AylF0lC1dL0Lb3oxyeEA47DcUKrEvM1uRkL X/W7n7/s8bCdZii9iBKq0t9eFZGapp86Pq3LDQv9EQRZc6H1WxHgpynaAl60JFBSlFPligbBqnrR phYoi904e34nKycOgXCmQ7CqHqU/eAvB8nVONsOHCwiEI4i8+CZC67fq7RZz2kl0jNAkX9bwjQys qEBp6xtGN8KHhxGsqkfk799BQM4wHXMyl9pJC/0RZNeUC0dQ8kyH9ye1Mgslzn7j8dRRF/yFcH0r SlvfEM1w4aESohRhG+AIoUmOrOYtTP9V3wEMrd+KyItvIrCiwolm2Q6ry+e6BZ6/oJMGaq7ucASl z+5FeHO77n7pW2O84han8qhtJzTpTjR5zUtTN5G+NYbMzB3d4wPl6xD5wVt6zoWPPGBHGm6wfB1K W99AsKZJ/1zzD5H+61UsTXFHUw87IT2csNBa3ZxewOI3Smrk0rQ+oQEA4QhKW99AuL7V7rZ5PmzH HXn0UEJVqKYJpa1vSOnlzKyyHPHiN1eANHdBTNujHrYSmqy008aWqy8o81B+LmB4cztKn91rObTH 7V49RA4epJfULQBKNrej5Nm90no5+6xVBo1Bm92rM9lGaBI050oNdZeTmdUSOjN3X6jtgsQiWAnt PbazXGxGgPSYIUGPmZm7z520rJaXLA9UOGzngIudFlq7AijnzczMzyIz/zCnLLCiQpniI0joDxDN 5of23EewfB0if/+O0KdZuj2K+T+c4m9j5KVAenANoVXYQmgyTq/pOtLfXuNqJ6qtchpSVY8FOuWK Z1lpaM/Aq3YMHun23URo/VaUvvimUGIsjl3C/JdnAUATmeJKy/SCwgktuuzK9bDLQmviipn5h6KQ DTfSEYwqa7jR2RAiCRIicU8nh8y5KMaldDkfGJIJ2wWMxgWYJSV41lvk/KdvjWl6aAJbYtN5E5qk BrZpyr8Rf+CU9/aqbwpNR1y6rV28kO4b+ft3/CFzCzDyK4xGbumqVeo8GV7EQ8/5F3CjzY40Uzss tEb/ZGbu6IbneNvYm5JZTGH+y7Pi1XvCEZS++KYzob3HFKGaJkR+8JYwJJftPRkHMFj5pGZfnqyk WJq+IxqPyFtL50VooXXm66QcsG9wYEUFd4TQaPWe8OZ2lDzTIZQgmi5W/jt/BYEjS+pKILxxp25I buGrfix81c+18BrJkV4wDM8KOJK3lc7XQneyBUt3/io1eMLbRyQhlu6N6y4gGFq/VdHVnBei2EJ3 bi+pmx3CbtzB3Z6Zu495nUVmeM9MZqxhafoOlu5wZ89oOGUGlglNvFJNaqiMdQb4F603+kQXEBTd WDpkHjIYjvWxjGD5OiV9V3DPlu6NY/4Pp3RnFAWi2t5DajQYQq7syyfikY+F5mrnzLzcF6a4oTuO FmNBuz4uwhGUPLtXWd/Yhy70ejVA+SLC/NAZwx6OF+GQHQ3OzM/arqUtEVr1/ezccknrDJCLZmLU sglJ6W+vYl5nSd1w4468hsz5lRbhUrqMv0AlWzYkx7s/iyksfHkWC+Ilv3IQzMNCA7pW2tLooVUL HQMzKph5eN/UhdBjNA2SDMUtTd9SukPBojTBmiaU/uAtBFbak7vxqCylqzerJEPCpWlBuJQHTXRq /qEoEYmLpek7PB5UwsynrVWwSuiDbIFoEEUP3PAd540XIUMD/ILQnihy8rgiUL7OMCRnZgY+V27o hOtEEHBHwzEZmCY0yWHNzWNNL2DpjoVlWg0GWGSx+PVFLHx5Vm9h7lx4PHSngcPD7nSVV7MRIS6h DfLdeVi6M86z6i1W8qWtWGitdeaHXwzBDd2ZsNA5bbg9qjtkXixwdUndxRTmL5+2vMor71mZSQ9W Q8Ah01baCqFjbIEV6wxACcCzmXfl6yw7c3TI3HCtjyJZvCUvGLwE2a8i5GEAePLFrB+VPY7PoZjZ ekwRmnx8MdcZnH9o+a0EgIzEMLip+hZTRgtzI1D1PBB92vI5PI9VTyFQ85Jwc3p8KO+vIvD8Eyty I3vsw/u8pKVKsx/8NGuhd7MFS7e+NllFLjIP+amk+WJxfAjzl08LdXWg8lkE1v7dI5cWGqh8Vnlh eddFXnbZkJweeNGoJc7kDTMQcEnDOT2YJbTmbVmaym/1Ta5jaFFHs1iavqWvD1euVyyZjEb1+lK6 wRLlWnR6nsXxIduWXstnQEUEAZecsdDE42xQl2XmH0qPDIrAdQzdnPFdslohwsr1+vt5eSndktUI 1P3Y1egNL7zKk49mwJvNBKDBTLTDjIVuYwsEc8RMQ6O9whHb4sc8SaNBsASBtX+HQOWztpzTVUSf RqD2R65LJ26GXZ7GDRByqk32eDOE3ssWZL6zh9A87WVX8r6pL85Gn1asdYF1tWZInSeJgiUIrHm+ IC+h1Qw7GQg4Ja2j87PQeXYxFHYNsMgiNXQOC6OCGTWRaqX7LuByB5ohdfYFC5cpL17ZU9zj07fG Mdsfd6Zx4CeR2cUFQT3SOlqK0Lyk63xCNJq68hwCN32+1EM8OPsh5i59xt8hWKJ046v4hCkoVq5H YN2PhC/c/NVLmD7dg6X79j0fFtwpV3bygVOXbOK/rIXmi/KQPV1zZn7WcuZdPpi7+ClmzvwrMim+ 9gtUPY/AGkEIrAAIVGzRDTXO9sezljlUw4tCmM+z4IGbYZdnyE6NzCI3uUnKMZQltEbDBKJrUbLl hwistMd5MzODxU4sjl/D9KkepG8JRjvLnvKErg7UvARUNHO3Ld2/g+nTPZi/upykFVihHQ015U+I 2hGO5J1hJ6y7tAwlW36IYGUdb7OUjs7LQgdKV6Jk8w4E1+ZvTbk6WiLh3w4s3b+DmTO/zCFEDkpW a7p415fSFYTkDF9Im8GVGzbo52D5WpRseUnPQEpZ6LDk+RqEW0IlCG/YjqXoWizqLF1gBJ5uymcI PFsvp5sN1XBmKadmMdsfx+L4/0NZR8ywXi8spTt36TPMXfzU1XPyB1TykzKh9ZsRWr/ZaLcGmboM LbS0GF/7pCJBSq0l/nBDdzboaF43G4iI2+iGU5UvMqlZxal1mcxA/jNUchAqQXjj92XIDECOizKS o4EtEDpRKytQsuUlBMvXSlTLgDP1PbCiwv0VkqCEvaZP9WBxXDylrKzhaYRWRR05f2kNV0MCUNo2 c+aX4rCjw7BryDuwskKRq3y9LOJYg1G9lgj94OyHeDgg+NBiqAThTTsQWtcoUXUueCuT2iE7rCCT msXMmX9Faugcd3uoLIq6V35q+3mrd7+MSE0td9v81UuYOfNL1/Qyi8CKCs08RCvhuuDaepRs3iHU y6mhc3hw9kPepgbDuiXOv50tyKQeIjV0DtOne4TWOvTkVoQ3ft9UaM+pzLt88HDgDB6c/ZB7ndW7 X7b9fDWCOh8OnMFsf1x4v1lw/YQ8tS53DTuT4brQk1sR3rCdywvqxzwcOINMirv+nYaLmjZKtEEz +5ZaiPStcdz/1f8SWoxgZZ3um8iCG7pzKdKhh4XRBGbO/FKjqyM1tbaSuuKZ7Sh/RvvMpk/3CHsK EXh+Qr5hO+6Qt6yFDpWgZMsPhT03lVI00iTglOFMcBlC54RLWAuRSc3q3vCsVpII7eUzC9xppG+N c8N6dT+xT3bwXo75q5cKJjFYcDPsJCx0sHwtSrf9SGjYqMFgr5PTGxmG7kxb6PQt/vxB3S6RhPZC TxovWO5E5h1rmULrrFn91B/Paa6vbMPTqOBYVbMQWXuzltlJWMmwC61rRHjTDqH01JN0HK7ZYqGl YeS0hNY1omTLD3V1tRPhO1Y76oXtdOtJzWJhVDuJtdYGK82rY3H8mmess5k1oAEsh+QERszI6bYK XULz4n5G8VmjsFJgZYVu98NdDN0jsgMAN/Zb9f2dwsiEDEKrolxncO6S+3FmEczM8DYKyVHfSy8s CvC5ZhSLNm2hZQYcaOBfL7QnchC4oTsHM+/MYun+He7L+sT+tyzXWbP7ZYTKcmPaS/fvGD5wNyGb YWcUCDCKjqlhZXDL0Y/Xp4bO6WazKSGclhwJwpuGU+jQHQteN1n1wk7LAy21nHh2vqOAGj8hz2WF ZUJ2eqFadUjOSThKaMA4eSa49knNGy36qJBXwNO2VgdaeAMpmdSsOFFKEqyfkNf6GxzHPGexzVAJ SjaLB9MMk79shOOEBvjpjWqwmsvJmeB2gWel637yuul6eNo5NfTfltrkFLhyg1jnrE8U5ac7LIwm XM0GdIXQFDQBXRjaI14xV5vlY6E53W1oXX4Wf/7qJY3GC5VFTQ20iAZSUn/0TqgOEMiNmTuGUau5 S58JQ3JOwVVCA8uhPZHgD61r5GZf5ZPTsTRzW1tfZKXl+ih4PY4Z55AXqpu/eslVAsiAN1obWtdo GJIrSDag62fEcjabMLTH6b4KlXmnB95AS6SmVmqgJVJTi6rva780UAgSGIEXNhVFMWQyFZ1EQQgN qHJ6RRNVOfCSYwiInbcn9r9peCzPki+OX/NcHnawfJ30x+q9kEteMEJTGE1UVaNQqaR64Ond8me2 6w60hFZFUfUCxzrbNJASrOA4aBbDdrJjAOoJuoVEwQkNyM+L80LmHYul+3dMa+m6V37q6EBKcLWW 0Dw/QqouAyNiFMFyG54gNCAXqwzmsXa0k5i/elFTVr37ZeFACy8S4kXtDOgbEbcn6MrAiNBJtoCX OG4X6GiSsOsKR6x9sm1hTlPEW7fCKhbHr3GtK2+ghTeQIrLyhUa4vlUo8+YufSYtFa1CwLWk3jG6 hA7VbtMcbDVTzQz0nItQfatp55AbtuOsW5EPeFaaN9DCy5/2IpmD5esQ3tyuKXdzgi6PazxOqmFa ctgRv5UBDf/wSG37NwhtgMxAS8Uz21G2IXf95kxq1nMDKQBQsuXHmjIlvuzeBF0rXJMhdFL9T74j bGZAJYgG4Yjy4UiPgUdMtXPIG0hZGL3iuYGU8MadXKnxcOCMq3qZw7Wk0TEyhJ5iC9yQHRSL49e4 eRPBmibPfdebN8oXqalF1Qs7XR1I4YbtOH4E99jyddwP2S+MJlyVRgKOabjIwrSFBqxPYbIKkWUo eabDU9JDNNBS98pPuWG8hdGEI4MQwdXaZcNkwnYB8q10FkpPedKWtslCwLGk0XEyhNbMOVq1912U dcT4lsAhzP6Wc0MFD6CQEA20eH2+IECkBmf+5mz/SddkUbBiLVbsfA2r9r7L28z5iGMuZNa203gA gUgZSrfuQOnWHVlJ4LSjkL41jrlLn2HFjldzyoNV9QjXt+p/HIgzSubUy0hDcKVbtd22Gulb456a kRKsqkeovlVTPn/1kitOYLh+M0q37jS6b4YNkSF00qgh4frNWLp/B3MXP3XUyZm7+CnCTyrny2nD xp1I3x4VrjvBS253sndJDZ0zJLSXrHNA4GQv3b/j+AyT0q07EGndIxtsSBrtYCg5QrXbpF7PYMVa lHXEUPHO/8bK9jccIww3n9pjUQ8j6+u1gZSSZzoEUkN+pSYzCETKsGLna6h4559R1hGTjpzJcFF2 Od1BSH6JKBApQ6R1DyKtezB/9RLmr160tWtVeoLPsLL9jZzyYFU9wht3YvFr7QBHIZAaOqfpSbLb PBR3DtU0IciJFqWGztkuiag+Nuq9BBiU2UmW0AkwhJ4cHUV1k37YjOrs9K1xpIbO2WaVUkPnUNLU opUejTuwdHs0r/lzdoFGMNieyo75gkaQ7R1FUiN9axxzF+XTeo1Q0tSCSOse4QvOIjUzg0hUkwcj pxQk26TxLm8kEjh14ACufPwxUjP6i3+H1tWjrCOG1e8dw4qdr9kSxxZN7eGNcHkJbsTweYReuscP e/JynWd/m39Ug/bUFe/8M1btfVeKzCP9/Th14ABG+vt5mw0jHIA5yZGDJ1pacOHECVw4cQKfx+No 3LULL8ZiKK8Tr20ciJRhxY5XsWLHq5i/egmpoXOWR55obJQN7wTK13lCepQ0tQgtZenWHQV3CsP1 rVypMXfps7xGA4MVaxF5fg9Kt+6Qenmnb97ESH9/jmF8ooW7hN2gzPmlCB2q3ZZMTwwnoVqft7qp CZFoFKmZGaRmZjDS34+R/n480dKCF2IxUaOysCPstzCawMJoAiVNuecKN+7A0r3xXKu0mMqxRryc YTuhpxMjz+8pKKEDKyq4WYuK1LA2chmu34xI6x7NsxDhRiKR5YwakWiUJ2WTRklJ2XZInV3BIICY uqBx1y5Ng24kErjR1YXyujq8GIuhcdcunh5aboAq7Jf64znTk0Rn+0+i4p3NGmtQ8kwH5v9wChkS g16avpWTpedk2C5YsVb3wQYr1iJcv7lgcWie1MikZvmDVwYwGXbLkvhGgm/AGnft4hUPyrbHDKHP gyH0Ey0tIr2D6Zs3ce7oUUSiUWzfvx/NHR26ciRYsRYr29/Aip2vYmH0CuYufmpq2bHoGz/PKadW aOHagPGV2YzSbcY526VbdxaE0GFB+u3cRXmpEaxYi9JtOxFp/ZGUrEjNzODLjz/Gn/r7MX1T/3Pa gp79vFTDYI7QfQA+UhcI3qYcpGZmcDkex+V4HM0dHWju6NCVI+pRyIXRhFT4iMqWSOuenPJQfSvS t0e5DpGTkAlLlW7dQVaqd3HNCkGOsygBjEVoXT0irXukw27TN2/icjwuNHo8CDjVJ3u8NKFDtdum 0hPDCagWnY5Eo2jctQtjFy5I1UG7m+qmpqzV1kNJUwtKmlqyo5B64a65i59xHbHSZ/ci9ftfSbXP DvDakLo9gfnbNzWLyjjlHIryiEU5zkaTWxUDs1M67DZ24QKufPyxUFaIIJCniVDtNsMsOwozFhoA ToJZRX2jCUJTTI6O4tzRo7gcj2NLRwee3b9fV2fTUciV7W8gNfTfmB++qJEj9MGw0sPtUUSe9Zo8 /zukOIR2yjlk9ezSvXHdHGeetKM9ZeT5PVL+RmpmBmMXLuByPG4oK0TYyLfOpoS9WUL3ATimLpCR HSLQLonKEbNhP3YUcnH8Gj+BqaYp79U3ZSByBifP/xap2xPYcPDdnNnebjmHgZWrEeboZl6OMx3N K2naLh12u/Lxxxjp7zccjzBCvnIDMEloEr7TyI7mjg5TOokHddhv+/79hi+KOuw3f/Vi9sHMXfwU JU9v13rdnAGEYMVaW/ORec7gvf97EanbEwCA2+d/p5k464ZzyMvTYHOcw/WbsWLHa9Ky4kYigSsf f2y6dxahuaNDJDeSZuoxa6EBgezIl9AUNxIJ3EgkUF5Xl9XZMmG/FTtfUwZr/ngOs789ifI3uw3P FVxtM6G5cuO32b8nfvOfHEK77xwCyJK5dOsOrNj5mnQYkw6CTI6O2toeO+QGYI3QcXBkR3ldnWXt xMP0zZvZUcjmjg5s37/fMOy3YseriLT+CAujV6Ryku2EyBm89/nFnP+nv7rimnMowsJoAuH6zSjr OGgq7CaT5mAF5XV1oh45brYu04Qm0Y4+APvU5Vs6OnA5bvr8hkjNzOAKuZmNu3Zh+/79UmE/tyFy BlncPv8715xDEWRH8yZHR7P62Els4Ue7+sxENyisrpyk6QqMIhV2YOzCBfR1deklsBQEes6gtux3 SM/mWjnqHNoBO5KfRvr70dfVhf/42c8cv8+RaBTP7t/P22RpEqMlQodqt/WBmT1AY9JugI5C/vrV V/F5HmEiu2DkDLK4zbHcpVstrAjFgeVvMJKe8NSBAzh39KjpGLJVCGLPScIx08hnbbtetuDFWCyP 6syDjkLSh2DWUbErldPIGWQx8Zv/5Nbh5vIQFNQ4nD5wABdOnHDdOAg4o+GWLPIhdBzMOgnldXWG o39OYaS/H//xs5+hr6tLuptk49VWIOMMsqDOIQs7tD87/C/CjUQCv+nuzso3J5w9Iwjye6ZgwRmk sExoItgLbqVZ3EgkcO7oUZw6cACfx+O6Dyq0rl4zlcssZJ1BFjzZEXlejowiGKVv0jTfUwcOoK+r y7YYslWIrLMVZ5Ai3+V0j8NDVloNOgp5msgRUVdqZmoQCzPOoHYfe51DZYSP3+NM37yJzyXuhZvQ sc7H86k3L0LrWWmnIx6yUFulc0ePcvcp64hZ0q9mnUEWdjqHomugjt5lg97KTUSiUUesM2DPgudc K72dH4opKHgzJAB966YHs84gC7ucQ1EvcyORwIUTJ0zV5QYEg2R5W2fABkKLrPSzBiN7hcKFEye4 0RAz04cAa84gCzucQ5EfkJqZwX91Gw//u43yujpR3Dlv6wzY90kKjZWORKN46b33bKrePqRmZnDu 6FFu9ys7FAxYdwZZ5Osclv34ILf8v7q7PSMx1Hjpvfd4ctQW6wzYRGjyZh1iyxt37TKcLFsITI6O crviQKQMZR18gqiRjzOoPca6c7iy/Q3uXL7P43HXBkbM4ImWFtHg2yE7rDNg40eDQrXb4uBMZtzz /vuecRDVEOlpuiiKHvJ1BllYcQ5F7byRSDiSU5MvItEo9rz/Pm/TIOGOLbD7K1gaK11eV4cXChyb FkGkp0WWjyJfZ5CFWedQmcGj7Um8qpsB4AXx5A0NZ/KBrYQmi+lptJBRhlyhoKenV+19l0soO5xB TTtMOoeitnlVN9NJGxwcl10MVBZOfKfwCDjLnnpVeoj0tMgK2uUMspB1DotNN+tIjSQUrtgK2wlN xP3bbHl5XZ3owgoOWT1tpzOorcPYOSw23QwohkwgNd62yxFUw5EvyYZqtw2CIz1ogr4XIaOn7XYG Weg5h8Wom3Xmhh4nHLEdTn4a+Qg4S6Dueu+9otXTdjuDLPScw2LUzbv44xCJUO02Wx1BNRwjtEp6 aLqVV3p6PDmKqKeny9/qtt0ZZCFyDsvf6i4q3VxeV4dXenp4m7hy1E44+vF64sFq3sZINIqf9PR4 0knUy/dgYYczyIInO3jn9qpuNni2h+yOarBwlNBAdsAlzpZXNzV51kkU6WkWdsqN5Tq1ziELL+vm V3p6RF92iNs5gCKC44QGgFDttrfB0dONu3Z5ktR6eprCTmeQBc9Kq+Gl982MAAAQcUlEQVRV3bzn /fdF/lGCcMBxuEJognZw4tPNHR2eJLVIT2e3O2CdKXjOIYVXdfOe998XTexIQnn2rsA1QhMn8XVw nESvklqkpwEgUuOcU1vW8DS33Ku6WYfMUwBedyLeLIKbFpo6ie0oIlKL9PRTb70rJF4+iNTUYuO7 /6gp96puNiBzu9NOIAtXCQ2IIx+AN0mtp6c3/fwIQqvsjdRs+sWRnBVKKbyom3XIDLgQ0eDBdUID 2cgH10nwIqlFejpSU4sNb3E/sm4JTx18F2UbtFbfi7rZgMxvuxHR4KEghAbkSO2lOLVIT1fvfhnV u1/Ou/6qF3ZqViYFvKebabKRF8kMAIFCnZgiPTEcA/PtForJ0VH0dXV5pquNRKP4h1//WjPKmZ6d wZ/+6ReYTf7ZWr01tdj2L/+mkRqpmRmcPnDAU9e/7/hxvS8IF5TMQAEtNIWepa5uasI//PrXhp9g dgupmRn8huOYhcqi2PjuP1rW08Wgm6ubmvDmv/+7p8kMeIDQQJbUz4ET/Sivq8O+48c9sXgNINbT ZRuetqSni0E3N3d0YN/x4yIJOAXgOS+QGfCA5FAjPTHcAmAAQCVv+0h/Py6cOOEJq/WTnh5uauTX H/4f6RyPqhd2YtPPtTnuNxIJ9HV15d3GfBGJRrHrvff0jElBQnN68BShASA9MVwJhdTcMVT6BS27 P4lgFvnqaa/rZpproyMxElDI7NqgiQw8ITnUIDeoHYIVKKmuLvSikPnqaS/r5hdjMSPfJQ4Pkhnw IKEBhdQkmUWYCP6C8U13HFb1tFd1MzUWBrP0D4VqtzkyfcoOeE5ysCC6+hMADaJ9Po/HHfugjQzM 6Gkv6mb6PXYDIieh5GV4Ri/z4HlCA1ld/RGYDxWpMX3zJv7nxImCrHksq6e9qJsbd+3CS++9ZzSD qA8OTWq1G0VBaIr0xPA+KMTmRkEAxdIVouum3TWL2W/+jD/90y+QfjCDbf/yb1yp0dfV5Xp7n2hp wQuxmNH8zikoRLb0vZNCoKgIDchZa6AwxN6+fz93Yujk+d9hcXaGO7T9Ofk0tFuQJDJQRFZZjaIj NAWx1sego60B94kt0tM8uKmbTRA5CcXxKxqrrEbREhrIWusuAIeN9r2RSOgm7NsFkZ5m4ZZubu7o QHNHh+zSEUegrJlRVFZZjaImNEV6YrgBCqljRvtO37yJkf5+/Km/37FvjYj0tBpO6ubyujpsIUSW XC4iDuCI2Q/FexGPBKEpSIjvGIA2mf2p1R67cMF2SynS04Azupl++NSENQaU5Y8LkojvFB4pQlOk J4bboFjsNtljxi5cwI1EAl9fuGCb5ebpaTt1c3ldHTaSReVNfsW3D8onIAZtaYiH8EgSmsKMFFFj cnQUNxIJ3Egk8LdEwrL1ZvV0vro5Eo3iey0teIL8WBgljeMRkRYiPNKEplA5jwdhEBXhYfrmTdxI JLK/J0dHpUmp1tO/6e6WHviJRKOobmrCEy0tKK+ry/62gCSUD8EXtbMni8eC0GqQcN9eKHFs4QCN DG4kEpifmclm/t0eHcW8iuiU+PQzZhdOnMgSlaI0GkUN+b+6qQml0agdi1lOQZEVZ4s1/GYVjx2h KYjVVpP7UUAfgLMA+h4Ha8zDY0toFirL3QYLsqRASEKJVDx2llgEn9AcEGeyDcBuKBMNvLKgdYL8 nIfy9ahkYZvjPfiElgQJBbYA2IBlkuelwXUwhWXyfgNlscNBh871SMEndJ4ggzmV5Ie15LsFh51n /k9AIfHUozTI4cOHDx8+fPjw4cOHDx8+fPjw4cOHDx8+fPjw4cPD8EcKH1Hc7d7UgNwkq8SanuuP fAae7YS+273pA+TOwm5f03N9kNnnI6hmkazpuR7gHBtf03OduxD63e5NA1BNr6LHC84/BaCRfZjk gX8Bko/B1NEGZQVUevxza3quJ3ltEeFu96YYtF8mqBKR6m73pi4o8yFFSELJrDui15a73Zv0lnfo I8drhtclzk9zrHXPT+qKwcS12wnXF2skFxtTFR0X7Bq7273JjuQfOluFRRvkkosqYXIKF8FeTple 3rVRWxpIO764272Jm/1HDIXeOoD7AAyQZ2D2/PQ+jAmOV8PstdsGVwlNCMpaT+3KhcuwK22zk/Ny NNhUtwbkXLwHyHvQIiSgWORB5H6BtxIKadlzfgDtizcIxWCwxx8jPZTs+VnLekxkbGy6dstw20J3 IZdIvS7pOqtW1irUD1R9fftM9DqH1vRcbyc/jVC6e4oGtZUm5GQNxXPk2EPk+LhqeyX05UXO+QGw 59e7n3Zcu2W4RmhyMZ2qouSanusfuHV+5txOQ22N4sw2q13vSeZ/NTnYOntZnUz8kaT6GAkrTY/l 9aTbBbs7ce3ScNNCH0PuQxAuZm4jBrH8EBsktF/e4HS5J5FLJKtdbwPzv9r6sXXGBXWwL0Wb7Mk5 jiTbHievXRquEJp0jzFV0eCanutuzIFrQO5DNFwDzwbkdLmECOprNd31ksiFuu0JhmBtqr+TOlGI Qeb/BpNtUIM3EcHo2ttkz2cVbhB6AEp4jGIK7lhnQHlgx7Fszdyw0morNEh+szNU2iTqGbjbvSlz t3tTBooTSF+CJATfdVRtF4H1V0QzanLAeaEAZXY5C/W1UyKrr72S82LYikJ8Y6US/KiDIyD6T20l DpLftjujnC73LGkD2xvl0/UmrR7Iiz/rgH2h1BGnOGdsgb328+Scdl67IQr10aAYBJ9Ddghqh6aN DJw4MXePtT59gr9lrJQobNcGhWwNZhtnkxE5LhjwsvPaLcMNQreTUbh2aMM4dsWZdUE0ZVxV5FTE Q219EgBa7nZvoi9QUrVNputlw3ZqErHxfFmw9zvJ28kA3wjK9a5d/dwdlR2uWWjSRbHa+SBnV6eg ttL7YPPACqfLbYHiP9AfdrTSVNe7pud6HLm9Skz1d1L1d5tONayFFpETWDZEVcx5NYMyEteubivg oOxwVXKQh6J+W2MGh4i6yAbV34OS504i10rbHfEwa3WsWKlBmXJiFXlgiSSqLwvig7CGiO3h3Lh2 KRRCQ+eMODHdzyCzr8aCk4fVoCpKmjh3r+rvBtFOFqEmSxJKj8D+DKr2sdL1ivZnoyial5UTOp1i HTsRyH5JnXa4ce1SCDtRqQHOIvfG7gUh+Zqe64N3uzclsUy2fXe7Nx0jxyShdKfskC07WCDEmp7r ibvdmwZhPh66m7SDp/lPQmm/+gH18UZBCanUIczstYtAuvMWKFaxQX0O+seanuvxu92bDqu2t93t 3vQJSGadKgNPjV6YQx+WZVPD3e5N+9b0XO/jDabYde1W4LqFJmGcpKooxmgytnvrgqLDxqD9RuGg rJVRQS8ZiiLJ/N9G2tHG+WmA1mJxXzISNlPXrWelBkjI7B6U69cMbzP/vw7G6YaSmUfDbg2qbQkL aQfsNVHZoRfdyMLktVtGocJ27M3JdpGE8G/DOE7cB+UhmgJ5AQYN9klCXsr0gelyDeK96mu30vUm AbzOvsjknO0wbncf2c8USP3qc7aRQSoz187KzTaz7TCCE5JjkPk/ydnnOIDVULrSBBirSbrQQSyv 36xGAsBZHcssKlfjEIwtRDuMndZB0qWfxfILyOpZFuprT2L5/sh0vwm9lAFCpkYV0dS9mdn7luTs 8zqWc3LOkucEyF87fc70uds+uOXDhw8fPnz48OHDhw8fPnz48PFowPZ1ObqayjN21+nj0cXx0Wl/ sSMfPnz48OHDhw8fPnz48GEPLHmYvc3VbQDQOTI5qCqjebvJzpHJJKd8qnNkMsGUAUCic2RSmKTS 21zdAJL6qD6falslrVfn+EooyTYNTBsqoSTItNC6VefLXkdvc3ULOT89to3ZrrlGGbD3sbe5uk31 d6VRuyTPwdZTCeWeceug52GebRv5U/0Ms/uR+5NUP0dSNtU5Mpkkf1eqr9Xs+WRhitDkZgxARUYo WWn7kDuL+0jnyOQH5EIGsJz1Fe8cmXy7t7n6A+TOqqAzGgZUZegcmQz0Nlerl86dAvB258hkH2nP PVJ3I7lxbMhwUPX3WSiZYs91jkwmepurj0HJpnudnLcdCmHU13G8c2TyEK2XtCdG9hnsHJlsJzdf vW5GvHNkUm/dDN59nOocmawi56H3rk3Vrjbk3i92QgGgTC9rQO7khUNYnlBL6x2AkhW3m9mXXt8X pF2vd45M9qnaQUGfeReAw6pnhM6RyWxaqrqMeS5TAA51jkzGyX5G55sC0C5LbLP50IfJyZ+DQgQ6 recYFPJUQbmxh8mb9xFpUBWUmxvrba5WP4gqcpz6YR2CcsPUObu07imQxHJSDyURrbMdy/MG25Gb L93H7NsGbcrmQSg9RoAce5JaZ9U52cVZjK6RhxjIQ4SyEKLRwjuHobxAtF1HoL1WWgclnHo7AHSS F4nikOqYQwAayTOj18um7bZDyVNvgbVVYY9AudYkyOwZifM1kr+l53+aJXQLlAeeIFbyCJSHWQng JOlyaAJ7G9mflsdVdQAASHmSOcd2aKdIqSUK7db2YnntioOkvkGQmcydI5OD6i6QdLFJALtVEoHN 350C0EKsC+3uKlXbdkN5IaZU7WnQu0YBqLWhC78b5UInAbT1Nld/Qtulc62VIPdeVZYkv2O0QnJt tB0Jcn/oi3gc2h7gIBRjMgWLa5qQc5wFUEkMhd756P683kgIKzNW1CT5AMs3i9XBDUzjNDqZdDcx 5FqSFijEaWDKBkgZTRLfh+UE+RbythuhD8rD3qf6X423SVtaAAwQWZJtLjmukhxXyRwrusZjvc3V A7QLJvsNQrG0SSjWZ4yxniyotd1H2qX3gCuh3D91T9JA2my0HslBKGT9DgrpeOdRG5d8UCl5Pr2l FjQwS2hqwSqBZeeIbKM3sIH8HsSyVcsR+qr6zkLRR2rNeahzZLKdaixVXXSfFpXc2IdlqyPzFlOL fBh8Z7SBtIV2jS2q6+kjfyeRa9mnQJaWFVzjFbJ/9hhy/wY7Ryafg/KCqkmyml4n+Z0EAFW7AH1i Jsj9Y6enHYFWY2eh6v5bsNzFq2XASdJeiOqQxAbyO2lwPqjKkrKVm52CdRJk8mVvczXtdp8DmRFM bkoblJs62Ntc3QtFT39Eymm33AVkLTwFJcExUjeg0padI5Px3ubqw1De6iQUr7oRAHqbq8dI+XG9 xhOnA8i19Gp80dtcnST1N0B5kRrIsYne5uojUE2bItcbJ9dO139TSw8wLybFYXIMrZ9KL3of6YOm XftYb3N1AnJTnVpUvUF2/iJxmuMwXqi8qnNkcopczz5VHQdVPVYS2mUg1Ofl3duDvc3V1BFVSwzR +Y6RZ9UiqI8LU4QmhKDOIKBY00Rvc/XbUG5yJRSLdJzs/wEhSANpaJw0fpBTd6K3uZp65RRJ5E4q PYRlApxnymmb2LrZCbm0/XHVOShRaUQBUHqPOHI1/wdAlshHSNmh3ubqK6RdV+g1stfH4AiUrrSS XEcfIZz6Pp6HEmWZYu75SdVLwl5rL3LlQAK51o2elx6nvvYGKM9zSrXvFdXfIMf2EuPSpqqXnaOZ QO59VxPyJDk+JnE+0PPBhw8fPnz48OHDhw8fPnz48OHDhw8fxYr/DwDLb2On5lWgAAAAAElFTkSu QmCC "
     height="342.43286"
     width="270.34174"
     style="opacity:1" />
</svg>
